…
t_stops_withLines_buffered <- st_as_sf(t_stops_withLines, coords = c("stop_lon","stop_lat"),crs = 4326) %>%
    sf::st_buffer(max_walk_meters_transport)
t_stops_withLines_buffered
```

    Simple feature collection with 293 features and 2 fields
    Geometry type: POLYGON
    Dimension:     XY
    Bounding box:  xmin: -71.26209 ymin: 42.20009 xmax: -70.9818 ymax: 42.44505
    Geodetic CRS:  WGS 84
    # A tibble: 293 × 3
       stop_name      route_id                                              geometry
     * <chr>          <chr>                                            <POLYGON [°]>
     1 Alewife        Red      ((-71.14487 42.40244, -71.14487 42.40242, -71.14504 …
     2 Allston Street Green-B  ((-71.13371 42.35524, -71.1339 42.35527, -71.13399 4…
     3 Allston Street Green-B  ((-71.13371 42.35531, -71.1338 42.35533, -71.1339 42…
     4 Amory Street   Green-B  ((-71.10902 42.35698, -71.10902 42.35705, -71.10911 …
     5 Amory Street   Green-B  ((-71.1092 42.3569, -71.1092 42.35701, -71.10939 42.…
     6 Andrew         Red      ((-71.04968 42.32591, -71.04959 42.32589, -71.04959 …
     7 Airport        Blue     ((-71.03789 42.36961, -71.03789 42.36948, -71.03771 …
     8 Aquarium       Blue     ((-71.06092 42.36243, -71.06092 42.36228, -71.06092 …
     9 Arlington      Green-B  ((-71.06157 42.34955, -71.06157 42.34962, -71.06148 …
    10 Arlington      Green-C  ((-71.06157 42.34955, -71.06157 42.34962, -71.06148 …
    # ℹ 283 more rows
…
cr_stops_withLines_buffered <- st_as_sf(cr_stops_withLines, coords = c("stop_lon","stop_lat"),crs = 4326) %>%
    sf::st_buffer(max_walk_meters_transport)
cr_stops_withLines_buffered
```

    Simple feature collection with 94 features and 2 fields
    Geometry type: POLYGON
    Dimension:     XY
    Bounding box:  xmin: -71.14968 ymin: 42.24633 xmax: -70.61722 ymax: 42.80517
    Geodetic CRS:  WGS 84
    # A tibble: 94 × 3
       stop_name        route_id                                            geometry
     * <chr>            <chr>                                          <POLYGON [°]>
     1 Fairmount        CR-Fairmount  ((-71.12898 42.25275, -71.12898 42.25268, -71…
     2 Fairmount        CR-Franklin   ((-71.12898 42.25275, -71.12898 42.25268, -71…
     3 Fairmount        CR-Providence ((-71.12898 42.25275, -71.12898 42.25268, -71…
     4 Blue Hill Avenue CR-Fairmount  ((-71.10458 42.27465, -71.10458 42.27463, -71…
     5 Blue Hill Avenue CR-Franklin   ((-71.10458 42.27465, -71.10458 42.27463, -71…
     6 Blue Hill Avenue CR-Providence ((-71.10458 42.27465, -71.10458 42.27463, -71…
     7 Morton Street    CR-Fairmount  ((-71.08506 42.27376, -71.08497 42.27374, -71…
     8 Morton Street    CR-Franklin   ((-71.08506 42.27376, -71.08497 42.27374, -71…
     9 Morton Street    CR-Providence ((-71.08506 42.27376, -71.08497 42.27374, -71…
    10 Talbot Avenue    CR-Fairmount  ((-71.08692 42.28906, -71.08692 42.28887, -71…
    # ℹ 84 more rows
…
bus_stops_withLines_buffered <- st_as_sf(bus_stops_withLines, coords = c("stop_lon","stop_lat"),crs = 4326) %>%
    sf::st_buffer(max_walk_meters_transport)
bus_stops_withLines_buffered
```

    Simple feature collection with 11255 features and 2 fields
    Geometry type: POLYGON
    Dimension:     XY
    Bounding box:  xmin: -71.30106 ymin: 42.09942 xmax: -70.83522 ymax: 42.59434
    Geodetic CRS:  WGS 84
    # A tibble: 11,255 × 3
       stop_name                     route_id                               geometry
     * <chr>                         <chr>                             <POLYGON [°]>
     1 Washington St opp Ruggles St  1        ((-71.07345 42.32856, -71.07345 42.32…
     2 Washington St opp Ruggles St  8        ((-71.07345 42.32856, -71.07345 42.32…
     3 Washington St opp Ruggles St  15       ((-71.07345 42.32856, -71.07345 42.32…
     4 Washington St opp Ruggles St  19       ((-71.07345 42.32856, -71.07345 42.32…
     5 Washington St opp Ruggles St  47       ((-71.07345 42.32856, -71.07345 42.32…
     6 Washington St opp Ruggles St  171      ((-71.07345 42.32856, -71.07345 42.32…
     7 Theo Glynn Way @ Newmarket Sq 8        ((-71.06798 42.3378, -71.06816 42.337…
     8 Theo Glynn Way @ Newmarket Sq 10       ((-71.06798 42.3378, -71.06816 42.337…
     9 Theo Glynn Way @ Newmarket Sq 171      ((-71.06798 42.3378, -71.06816 42.337…
    10 Tremont St opp Temple Pl      15       ((-71.05497 42.35147, -71.05479 42.35…
    # ℹ 11,245 more rows
…
``` r
nLines_perBlock <- t_stops_withLines_buffered %>% 
    as_tibble() %>% 
    dplyr::select(-geometry) %>%
    mutate(RowNumber = row_number()) %>%
    mutate(route_id = str_replace_all(route_id,"-.","")) %>%
    mutate(route_id = str_replace_all(route_id,"Mattapan","Red")) %>%
    left_join(enframe(blocks_walkToT) %>% 
                unnest(cols=value,keep_empty = T),.,by=c("value" = "RowNumber")) %>% 
    group_by(name) %>%
    summarize(nLines = n_distinct(route_id,na.rm=T))
nLines_perBlock
```

    # A tibble: 14,449 × 2
        name nLines
       <int>  <int>
     1     1      0
     2     2      0
     3     3      1
     4     4      0
     5     5      0
     6     6      1
     7     7      1
     8     8      1
     9     9      0
    10    10      0
    # ℹ 14,439 more rows
…
## Summarize number of unique CR lines per census block

``` r
nCRLines_perBlock <- cr_stops_withLines_buffered %>% 
    as_tibble() %>% 
    dplyr::select(-geometry) %>%
    mutate(RowNumber = row_number()) %>%
    left_join(enframe(blocks_walkToCR) %>% 
                unnest(cols=value,keep_empty = T),.,by=c("value" = "RowNumber")) %>% 
    group_by(name) %>%
    summarize(nLines = n_distinct(route_id,na.rm=T))
nCRLines_perBlock
```

    # A tibble: 14,449 × 2
        name nLines
       <int>  <int>
     1     1      0
     2     2      0
     3     3      0
     4     4      1
     5     5      0
     6     6      0
     7     7      0
     8     8      0
     9     9      0
    10    10      0
    # ℹ 14,439 more rows
…
## Summarize number of unique bus lines per census block

``` r
nBusLines_perBlock <- bus_stops_withLines_buffered %>% 
    as_tibble() %>% 
    dplyr::select(-geometry) %>%
    mutate(RowNumber = row_number()) %>%
    left_join(enframe(blocks_walkToBus) %>% 
                unnest(cols=value,keep_empty = T),.,by=c("value" = "RowNumber")) %>% 
    group_by(name) %>%
    summarize(nLines = n_distinct(route_id,na.rm=T))
nBusLines_perBlock
```

    # A tibble: 14,449 × 2
        name nLines
       <int>  <int>
     1     1      2
     2     2      4
     3     3     10
     4     4      5
     5     5      1
     6     6      3
     7     7     18
     8     8     18
     9     9      1
    10    10      1
    # ℹ 14,439 more rows
…
    mutate(Connectivity = case_when(
        (numTlines == 0) & (numCRlines == 0) & (numBuslines == 0) ~ 0,
        (numTlines > 0) & (numCRlines > 0) & (numBuslines > 0) ~ 3,
        (numTlines > 0) & ((numCRlines > 0) | (numBuslines > 0)) ~ 2,
        (numCRlines > 0) & ((numTlines > 0) | (numBuslines > 0)) ~ 2,
            ((numTlines == 0) & (numCRlines == 0)) | 
            ((numTlines == 0) & (numBuslines == 0)) | 
            ((numCRlines == 0) & (numBuslines == 0)) ~ 1,
        T ~ 999
        )
    )
T_connectivity
```

    # A tibble: 14,449 × 4
       numTlines numCRlines numBuslines Connectivity
           <int>      <int>       <int>        <dbl>
     1         0          0           2            1
     2         0          0           4            1
     3         1          0          10            2
     4         0          1           5            2
     5         0          0           1            1
     6         1          0           3            2
     7         1          0          18            2
     8         1          0          18            2
     9         0          0           1            1
    10         0          0           1            1
    # ℹ 14,439 more rows
…
### Peek at result, then buffer by max walking distance

``` r
cafes_merged
```

    # A tibble: 110 × 5
       name                         lat   lng rating user_ratings_total
       <chr>                      <dbl> <dbl>  <dbl>              <int>
     1 Yego Coffee                 42.4 -71.1    5                  213
     2 Zaruma Gold Coffee          42.4 -71.1    4.5                208
     3 Wicked Cafe                 42.4 -71.1    4.8                 58
     4 Broadsheet Coffee Roasters  42.4 -71.1    4.6                613
     5 True Grounds                42.4 -71.1    4.5                322
     6 Nine Bar Espresso           42.4 -71.1    4.6                335
     7 Maprang Bakery & Cafe       42.4 -71.1    4.9                156
     8 Bloc Cafe                   42.4 -71.1    4.4                765
     9 Diesel Cafe                 42.4 -71.1    4.4               1277
    10 3 Little Figs               42.4 -71.1    4.7                954
    # ℹ 100 more rows
…
### Peek at result, then buffer by max walking distance

``` r
restaurants_merged
```

    # A tibble: 224 × 5
       name                          lat   lng rating user_ratings_total
       <chr>                       <dbl> <dbl>  <dbl>              <int>
     1 The Neighborhood Restaurant  42.4 -71.1    4.7               1435
     2 Salt + Stone                 42.4 -71.1    4.1                408
     3 Hot Tomatoes                 42.4 -71.1    4.8                 56
     4 Civility Social House        42.4 -71.1    4.7                139
     5 Highland Kitchen             42.4 -71.1    4.6               1313
     6 Josephine                    42.4 -71.1    4.2                175
     7 Sarma Restaurant             42.4 -71.1    4.7               2172
     8 Cristian Latin               42.4 -71.1    4.9                 53
     9 Trina's Starlite Lounge      42.4 -71.1    4.7                951
    10 Juliet                       42.4 -71.1    4.5                529
    # ℹ 214 more rows
…
### Peek at result, then buffer by max walking distance

``` r
grocery_merged
```

    # A tibble: 107 × 5
       name                   lat   lng rating user_ratings_total
       <chr>                <dbl> <dbl>  <dbl>              <int>
     1 Market Basket         42.4 -71.1    4.4               4433
     2 Stop & Shop           42.4 -71.1    4.2               1362
     3 Whole Foods Market    42.4 -71.1    4.3                764
     4 Neighborhood Produce  42.4 -71.1    4.9                153
     5 Wegmans               42.4 -71.1    4.5               3005
     6 Get-N-Go              42.4 -71.1    4.9                 25
     7 Broadway Marketplace  42.4 -71.1    4.1                462
     8 Shree Bombay Market   42.4 -71.1    4.3                113
     9 Whole Foods Market    42.4 -71.1    4.1                863
    10 Reliable Market       42.4 -71.1    4.5                581
    # ℹ 97 more rows
…
### Peek at result, then buffer by max walking distance

``` r
parks_merged
```

    # A tibble: 167 × 5
       name                               lat   lng rating user_ratings_total
       <chr>                            <dbl> <dbl>  <dbl>              <int>
     1 Sylvester Baxter Riverfront Park  42.4 -71.1    4.6                540
     2 Hoyt-Sullivan Playground          42.4 -71.1    4.7                 92
     3 Dickerman Playground              42.4 -71.1    4.7                 47
     4 Lincoln Park                      42.4 -71.1    4.8                547
     5 Seven Hills Park                  42.4 -71.1    4.2                 99
     6 Morse-Kelley Playground           42.4 -71.1    4.6                 35
     7 Glen Park                         42.4 -71.1    4.6                 48
     8 Conway Park                       42.4 -71.1    4.4                124
     9 Albion Playground                 42.4 -71.1    4.6                116
    10 Prospect Hill Park                42.4 -71.1    4.6                337
    # ℹ 157 more rows
…
``` r
walkabilityScore <- cbind("T_connectivity" = greaterBoston_censusblocks$T_connectivity,
                            "nCafes" = greaterBoston_censusblocks$nCafes,
                            "nRestaurants" = greaterBoston_censusblocks$nRestaurants,
                            "nGrocery" = greaterBoston_censusblocks$nGrocery,
                            "nParks" = greaterBoston_censusblocks$nParks
    ) %>%
    as_tibble() %>%
    rowwise() %>%
    mutate(walkability = sum(T_connectivity,nCafes,nRestaurants,nGrocery,nParks))

walkabilityScore
```

    # A tibble: 14,449 × 6
    # Rowwise: 
       T_connectivity nCafes nRestaurants nGrocery nParks walkability
                <dbl>  <dbl>        <dbl>    <dbl>  <dbl>       <dbl>
     1              1      0            0        0      0           1
     2              1      1            0        1      0           3
     3              2      0            0        1      2           5
     4              2      0            0        1      1           4
     5              1      0            0        0      0           1
     6              2      2            2        2      2          10
     7              2      0            0        0      0           2
     8              2      0            0        0      0           2
     9              1      0            0        0      0           1
    10              1      0            0        0      0           1
    # ℹ 14,439 more rows
…
    dplyr::rename("Chunk" = name) %>% 
    unnest(cols=c(value)) %>%
    mutate(MaxCommute = round(MaxCommute)) %>%
    mutate(CommuteScore = case_when(
        MaxCommute >= 55 ~ 0,
        MaxCommute >= 45 & MaxCommute < 55 ~ 1,
        MaxCommute >= 35 & MaxCommute < 45 ~ 2,
        MaxCommute >= 25 & MaxCommute < 35 ~ 3,
        MaxCommute < 25 ~ 4
        )
    )
maxCommutesFlat
```

    # A tibble: 3,519 × 4
       Chunk  name MaxCommute CommuteScore
       <int> <int>      <dbl>        <dbl>
     1     1     1         47            1
     2     1     2         24            4
     3     1     3         56            0
     4     1     4         55            0
     5     1     5         38            2
     6     1     6         31            3
     7     1     7         56            0
     8     1     8         30            3
     9     1     9         42            2
    10     1    10         29            3
    # ℹ 3,509 more rows
…
# Read MLS results back into R, then overlay onto our scored census blocks and plot

## Import MLS results

``` r
file.list <- list.files(pattern="HomeHarvest_*")
df.list <- lapply(file.list, function(x){read_csv(x) %>% mutate(mls_id = as.character(mls_id))})
mls_df <- bind_rows(df.list, .id = "id")

mls_df
```

    # A tibble: 1,021 × 44
       id    property_url    mls   mls_id status text  style full_street_line street
       <chr> <chr>           <chr> <chr>  <chr>  <chr> <chr> <chr>            <chr> 
     1 1     https://www.re… BSMA  73255… PENDI… Enjo… COND… 990 Massachuset… 990 M…
     2 1     https://www.re… BSMA  73255… PENDI… Welc… COND… 38 Tanager St U… 38 Ta…
     3 1     https://www.re… BSMA  73252… PENDI… East… COND… 57 Wyman Ter Un… 57 Wy…
     4 1     https://www.re… BSMA  73259… FOR_S… Inve… MULT… 37 Westminster … 37 We…
     5 1     https://www.re… BSMA  73257… FOR_S… Luxu… COND… 17 Mount Vernon… 17 Mo…
     6 1     https://www.re… BSMA  73255… FOR_S… Anno… COND… 1025 Massachuse… 1025 …
     7 1     https://www.re… BSMA  73255… PENDI… A na… SING… 251 Sylvia St    251 S…
     8 1     https://www.re… BSMA  73255… PENDI… The … COND… 5 Colonial Vill… 5 Col…
     9 1     https://www.re… BSMA  73255… FOR_S… Anno… COND… 1025 Massachuse… 1025 …
    10 1     https://www.re… BSMA  73253… FOR_S… Loca… MULT… 7 Park Ave Ext   7 Par…
    # ℹ 1,011 more rows
    # ℹ 35 more variables: unit <chr>, city <chr>, state <chr>, zip_code <chr>,
    #   beds <dbl>, full_baths <dbl>, half_baths <dbl>, sqft <dbl>,
    #   year_built <dbl>, days_on_mls <dbl>, list_price <dbl>, list_date <date>,
    #   sold_price <dbl>, last_sold_date <date>, assessed_value <dbl>,
    #   estimated_value <dbl>, lot_sqft <dbl>, price_per_sqft <dbl>,
    #   latitude <dbl>, longitude <dbl>, neighborhoods <chr>, county <chr>, …
…
Here we set a filter for 2-4 bedrooms for sale listed under \$1.5M as an
example query

``` r
mls_filtered <- mls_df %>%
    dplyr::filter(status == "FOR_SALE") %>%
    dplyr::filter(beds >= 2 & beds <=4) %>%
    dplyr::filter(list_price <= 1500000) %>%
    dplyr::select(mls_id,property_url,full_street_line,city,zip_code,beds,full_baths,half_baths,sqft,list_price,latitude,longitude)

mls_filtered
```

    # A tibble: 407 × 12
       mls_id   property_url        full_street_line city  zip_code  beds full_baths
       <chr>    <chr>               <chr>            <chr> <chr>    <dbl>      <dbl>
     1 73257275 https://www.realto… 17 Mount Vernon… Arli… 02476        3          3
     2 73255813 https://www.realto… 1025 Massachuse… Arli… 02476        2          2
     3 73253422 https://www.realto… 7 Park Ave Ext   Arli… 02724        4          2
     4 73258441 https://www.realto… 31 Surry Rd Uni… Arli… 02476        4          2
     5 73254782 https://www.realto… 56 Wyman St Uni… Arli… 02474        2          1
     6 73258370 https://www.realto… 5 Mystic Lake D… Arli… 02474        3          4
     7 73254860 https://www.realto… 176 Park Ave Un… Arli… 02476        2          1
     8 73258983 https://www.realto… 17 Mount Vernon… Arli… 02478        3          3
     9 73258412 https://www.realto… 1025 Massachuse… Arli… 02476        3          2
    10 73257584 https://www.realto… 279 Channing Rd  Belm… 02478        3          2
    # ℹ 397 more rows
    # ℹ 5 more variables: half_baths <dbl>, sqft <dbl>, list_price <dbl>,
    #   latitude <dbl>, longitude <dbl>
…
    Warning: attribute variables are assumed to be spatially constant throughout
    all geometries

``` r
mls_intersection
```

    Simple feature collection with 31 features and 42 fields
    Geometry type: POINT
    Dimension:     XY
    Bounding box:  xmin: -71.14921 ymin: 42.31591 xmax: -71.05728 ymax: 42.38341
    Geodetic CRS:  WGS 84
    # A tibble: 31 × 43
       mls_id   property_url        full_street_line city  zip_code  beds full_baths
     * <chr>    <chr>               <chr>            <chr> <chr>    <dbl>      <dbl>
     1 73258788 https://www.realto… 15 Trowbridge S… Camb… 02138        2          1
     2 73254345 https://www.realto… 52 Franklin St … Some… 02145        2          2
     3 73252063 https://www.realto… 140 Shawmut Ave… Bost… 02118        2          2
     4 73257304 https://www.realto… 214 Market St A… Bost… 02135        3          2
     5 73250779 https://www.realto… 176 School St U… Bost… 02119        3          2
     6 73249889 https://www.realto… 12 Stoneholm St… Bost… 02115        2          2
     7 73255101 https://www.realto… 1070 Beacon St … Broo… 02446        2          1
     8 73253643 https://www.realto… 18 South St Apt… Some… 02143        2          1
     9 73257692 https://www.realto… 108 Peterboroug… Bost… 02215        2          1
    10 73253842 https://www.realto… 40 Browne St Ap… Broo… 02446        2          1
    # ℹ 21 more rows
    # ℹ 36 more variables: half_baths <dbl>, sqft <dbl>, list_price <dbl>,
    #   STATEFP20 <chr>, COUNTYFP20 <chr>, TRACTCE20 <chr>, BLOCKCE20 <chr>,
    #   GEOID20 <chr>, NAME20 <chr>, MTFCC20 <chr>, ALAND20 <dbl>, AWATER20 <dbl>,
    #   INTPTLAT20 <chr>, INTPTLON20 <chr>, HOUSING20 <dbl>, POP20 <dbl>,
    #   AREA_SQFT <dbl>, AREA_ACRES <dbl>, TOWN <chr>, TOWN_ID <int>,
    #   BLKGRP20 <chr>, TRACT20 <chr>, COUSUBFP <chr>, SHAPE_AREA <dbl>, …
…
